{
  "workers": [
    { "id": 1, "first_name": "Julie", "status": "medic" },
    { "id": 2, "first_name": "Marc", "status": "medic" },
    { "id": 3, "first_name": "Antoine", "status": "intern" },
    { "id": 4, "first_name": "Emilie", "status": "medic" },
    { "id": 5, "first_name": "Lea", "status": "interim" }
  ],
  "shifts": [
    { "id": 1, "planning_id": 1, "user_id": 1, "start_date": "2017-1-1" },
    { "id": 2, "planning_id": 1, "user_id": 2, "start_date": "2017-1-2" },
    { "id": 3, "planning_id": 1, "user_id": 3, "start_date": "2017-1-3" },
    { "id": 4, "planning_id": 1, "user_id": 4, "start_date": "2017-1-4" },
    { "id": 5, "planning_id": 1, "user_id": 5, "start_date": "2017-1-5" },
    { "id": 6, "planning_id": 1, "user_id": 2, "start_date": "2017-1-6" },
    { "id": 7, "planning_id": 1, "user_id": 5, "start_date": "2017-1-7" },
    { "id": 8, "planning_id": 1, "user_id": 4, "start_date": "2017-1-8" },
    { "id": 9, "planning_id": 1, "user_id": 5, "start_date": "2017-1-9" },
    { "id": 10, "planning_id": 1, "user_id": 2, "start_date": "2017-1-10" }
  ]
}
